^D:\DEVELOPMENT\GIT\DXAPP\DXAPPW10\CONTENT\SAMPLEPIXELSHADER.HLSL
/nologo /E"main" /T ps_4_0_level_9_3 /Fo "D:\Development\Git\DXApp\Debug\DXAppW10\SamplePixelShader.cso" /Od /Zi D:\DEVELOPMENT\GIT\DXAPP\DXAPPW10\CONTENT\SAMPLEPIXELSHADER.HLSL
^D:\DEVELOPMENT\GIT\DXAPP\DXAPPW10\CONTENT\SAMPLEVERTEXSHADER.HLSL
/nologo /E"main" /T vs_4_0_level_9_3 /Fo "D:\Development\Git\DXApp\Debug\DXAppW10\SampleVertexShader.cso" /Od /Zi D:\DEVELOPMENT\GIT\DXAPP\DXAPPW10\CONTENT\SAMPLEVERTEXSHADER.HLSL
^D:\DEVELOPMENT\GIT\DXAPP\DXAPPW10\PIXELSHADER.HLSL
/nologo /E"main" /T ps_4_0_level_9_3 /Fo "D:\Development\Git\DXApp\Debug\DXAppW10\PixelShader.cso" /Od /Zi D:\DEVELOPMENT\GIT\DXAPP\DXAPPW10\PIXELSHADER.HLSL
^D:\DEVELOPMENT\GIT\DXAPP\DXAPPW10\VERTEXSHADER.HLSL
/nologo /E"main" /T vs_4_0_level_9_3 /Fo "D:\Development\Git\DXApp\Debug\DXAppW10\VertexShader.cso" /Od /Zi D:\DEVELOPMENT\GIT\DXAPP\DXAPPW10\VERTEXSHADER.HLSL
