^D:\DEVELOPMENT\GIT\DXAPP\DXAPPW10\PCH.CPP
/c /ID:\DEVELOPMENT\GIT\DXAPP\DXAPPW10\ /IARM\DEBUG\ /ID:\DEVELOPMENT\GIT\DXAPP\DXAPPW10\ /I"GENERATED FILES\\" /IARM\DEBUG\ /Zi /ZW /ZW:nostdlib /nologo /W3 /WX- /sdl /Od /Oy- /D _DEBUG /D _ARM_WINAPI_PARTITION_DESKTOP_SDK_AVAILABLE=1 /D _UNICODE /D UNICODE /D _DEBUG /D WINAPI_FAMILY=WINAPI_FAMILY_APP /D __WRL_NO_DEFAULT_LIB__ /Gm- /EHsc /RTC1 /MDd /GS /fp:precise /Zc:wchar_t /Zc:forScope /Zc:inline /Yc"pch.h" /Fp"ARM\DEBUG\PCH.PCH" /Fo"ARM\DEBUG\\" /Fd"ARM\DEBUG\VC140.PDB" /Gd /TP /wd4453 /wd28204 /FU"C:\PROGRAM FILES (X86)\MICROSOFT VISUAL STUDIO 14.0\VC\LIB\STORE\REFERENCES\PLATFORM.WINMD" /FU"C:\PROGRAM FILES (X86)\WINDOWS KITS\10\REFERENCES\WINDOWS.APPLICATIONMODEL.CALLS.CALLSVOIPCONTRACT\1.0.0.0\WINDOWS.APPLICATIONMODEL.CALLS.CALLSVOIPCONTRACT.WINMD" /FU"C:\PROGRAM FILES (X86)\WINDOWS KITS\10\REFERENCES\WINDOWS.DEVICES.PRINTERS.PRINTERSCONTRACT\1.0.0.0\WINDOWS.DEVICES.PRINTERS.PRINTERSCONTRACT.WINMD" /FU"C:\PROGRAM FILES (X86)\WINDOWS KITS\10\REFERENCES\WINDOWS.FOUNDATION.FOUNDATIONCONTRACT\2.0.0.0\WINDOWS.FOUNDATION.FOUNDATIONCONTRACT.WINMD" /FU"C:\PROGRAM FILES (X86)\WINDOWS KITS\10\REFERENCES\WINDOWS.FOUNDATION.UNIVERSALAPICONTRACT\2.0.0.0\WINDOWS.FOUNDATION.UNIVERSALAPICONTRACT.WINMD" /FU"C:\PROGRAM FILES (X86)\WINDOWS KITS\10\REFERENCES\WINDOWS.GRAPHICS.PRINTING3D.PRINTING3DCONTRACT\2.0.0.0\WINDOWS.GRAPHICS.PRINTING3D.PRINTING3DCONTRACT.WINMD" /FU"C:\PROGRAM FILES (X86)\WINDOWS KITS\10\REFERENCES\WINDOWS.NETWORKING.CONNECTIVITY.WWANCONTRACT\1.0.0.0\WINDOWS.NETWORKING.CONNECTIVITY.WWANCONTRACT.WINMD" /analyze- /bigobj  D:\DEVELOPMENT\GIT\DXAPP\DXAPPW10\PCH.CPP
^D:\DEVELOPMENT\GIT\DXAPP\DXAPPW10\COMMON\DEVICERESOURCES.CPP
/c /ID:\DEVELOPMENT\GIT\DXAPP\DXAPPW10\ /IARM\DEBUG\ /ID:\DEVELOPMENT\GIT\DXAPP\DXAPPW10\ /I"GENERATED FILES\\" /IARM\DEBUG\ /Zi /ZW /ZW:nostdlib /nologo /W3 /WX- /sdl /Od /Oy- /D _DEBUG /D _ARM_WINAPI_PARTITION_DESKTOP_SDK_AVAILABLE=1 /D _UNICODE /D UNICODE /D _DEBUG /D WINAPI_FAMILY=WINAPI_FAMILY_APP /D __WRL_NO_DEFAULT_LIB__ /Gm- /EHsc /RTC1 /MDd /GS /fp:precise /Zc:wchar_t /Zc:forScope /Zc:inline /Yu"pch.h" /Fp"ARM\DEBUG\PCH.PCH" /Fo"ARM\DEBUG\\" /Fd"ARM\DEBUG\VC140.PDB" /Gd /TP /wd4453 /wd28204 /FU"C:\PROGRAM FILES (X86)\MICROSOFT VISUAL STUDIO 14.0\VC\LIB\STORE\REFERENCES\PLATFORM.WINMD" /FU"C:\PROGRAM FILES (X86)\WINDOWS KITS\10\REFERENCES\WINDOWS.APPLICATIONMODEL.CALLS.CALLSVOIPCONTRACT\1.0.0.0\WINDOWS.APPLICATIONMODEL.CALLS.CALLSVOIPCONTRACT.WINMD" /FU"C:\PROGRAM FILES (X86)\WINDOWS KITS\10\REFERENCES\WINDOWS.DEVICES.PRINTERS.PRINTERSCONTRACT\1.0.0.0\WINDOWS.DEVICES.PRINTERS.PRINTERSCONTRACT.WINMD" /FU"C:\PROGRAM FILES (X86)\WINDOWS KITS\10\REFERENCES\WINDOWS.FOUNDATION.FOUNDATIONCONTRACT\2.0.0.0\WINDOWS.FOUNDATION.FOUNDATIONCONTRACT.WINMD" /FU"C:\PROGRAM FILES (X86)\WINDOWS KITS\10\REFERENCES\WINDOWS.FOUNDATION.UNIVERSALAPICONTRACT\2.0.0.0\WINDOWS.FOUNDATION.UNIVERSALAPICONTRACT.WINMD" /FU"C:\PROGRAM FILES (X86)\WINDOWS KITS\10\REFERENCES\WINDOWS.GRAPHICS.PRINTING3D.PRINTING3DCONTRACT\2.0.0.0\WINDOWS.GRAPHICS.PRINTING3D.PRINTING3DCONTRACT.WINMD" /FU"C:\PROGRAM FILES (X86)\WINDOWS KITS\10\REFERENCES\WINDOWS.NETWORKING.CONNECTIVITY.WWANCONTRACT\1.0.0.0\WINDOWS.NETWORKING.CONNECTIVITY.WWANCONTRACT.WINMD" /analyze- /bigobj  D:\DEVELOPMENT\GIT\DXAPP\DXAPPW10\COMMON\DEVICERESOURCES.CPP
^D:\DEVELOPMENT\GIT\DXAPP\DXAPPW10\CONTENT\SAMPLEFPSTEXTRENDERER.CPP
/c /ID:\DEVELOPMENT\GIT\DXAPP\DXAPPW10\ /IARM\DEBUG\ /ID:\DEVELOPMENT\GIT\DXAPP\DXAPPW10\ /I"GENERATED FILES\\" /IARM\DEBUG\ /Zi /ZW /ZW:nostdlib /nologo /W3 /WX- /sdl /Od /Oy- /D _DEBUG /D _ARM_WINAPI_PARTITION_DESKTOP_SDK_AVAILABLE=1 /D _UNICODE /D UNICODE /D _DEBUG /D WINAPI_FAMILY=WINAPI_FAMILY_APP /D __WRL_NO_DEFAULT_LIB__ /Gm- /EHsc /RTC1 /MDd /GS /fp:precise /Zc:wchar_t /Zc:forScope /Zc:inline /Yu"pch.h" /Fp"ARM\DEBUG\PCH.PCH" /Fo"ARM\DEBUG\\" /Fd"ARM\DEBUG\VC140.PDB" /Gd /TP /wd4453 /wd28204 /FU"C:\PROGRAM FILES (X86)\MICROSOFT VISUAL STUDIO 14.0\VC\LIB\STORE\REFERENCES\PLATFORM.WINMD" /FU"C:\PROGRAM FILES (X86)\WINDOWS KITS\10\REFERENCES\WINDOWS.APPLICATIONMODEL.CALLS.CALLSVOIPCONTRACT\1.0.0.0\WINDOWS.APPLICATIONMODEL.CALLS.CALLSVOIPCONTRACT.WINMD" /FU"C:\PROGRAM FILES (X86)\WINDOWS KITS\10\REFERENCES\WINDOWS.DEVICES.PRINTERS.PRINTERSCONTRACT\1.0.0.0\WINDOWS.DEVICES.PRINTERS.PRINTERSCONTRACT.WINMD" /FU"C:\PROGRAM FILES (X86)\WINDOWS KITS\10\REFERENCES\WINDOWS.FOUNDATION.FOUNDATIONCONTRACT\2.0.0.0\WINDOWS.FOUNDATION.FOUNDATIONCONTRACT.WINMD" /FU"C:\PROGRAM FILES (X86)\WINDOWS KITS\10\REFERENCES\WINDOWS.FOUNDATION.UNIVERSALAPICONTRACT\2.0.0.0\WINDOWS.FOUNDATION.UNIVERSALAPICONTRACT.WINMD" /FU"C:\PROGRAM FILES (X86)\WINDOWS KITS\10\REFERENCES\WINDOWS.GRAPHICS.PRINTING3D.PRINTING3DCONTRACT\2.0.0.0\WINDOWS.GRAPHICS.PRINTING3D.PRINTING3DCONTRACT.WINMD" /FU"C:\PROGRAM FILES (X86)\WINDOWS KITS\10\REFERENCES\WINDOWS.NETWORKING.CONNECTIVITY.WWANCONTRACT\1.0.0.0\WINDOWS.NETWORKING.CONNECTIVITY.WWANCONTRACT.WINMD" /analyze- /bigobj  D:\DEVELOPMENT\GIT\DXAPP\DXAPPW10\CONTENT\SAMPLEFPSTEXTRENDERER.CPP
^D:\DEVELOPMENT\GIT\DXAPP\DXAPPW10\CONTENT\SAMPLE3DSCENERENDERER.CPP
/c /ID:\DEVELOPMENT\GIT\DXAPP\DXAPPW10\ /IARM\DEBUG\ /ID:\DEVELOPMENT\GIT\DXAPP\DXAPPW10\ /I"GENERATED FILES\\" /IARM\DEBUG\ /Zi /ZW /ZW:nostdlib /nologo /W3 /WX- /sdl /Od /Oy- /D _DEBUG /D _ARM_WINAPI_PARTITION_DESKTOP_SDK_AVAILABLE=1 /D _UNICODE /D UNICODE /D _DEBUG /D WINAPI_FAMILY=WINAPI_FAMILY_APP /D __WRL_NO_DEFAULT_LIB__ /Gm- /EHsc /RTC1 /MDd /GS /fp:precise /Zc:wchar_t /Zc:forScope /Zc:inline /Yu"pch.h" /Fp"ARM\DEBUG\PCH.PCH" /Fo"ARM\DEBUG\\" /Fd"ARM\DEBUG\VC140.PDB" /Gd /TP /wd4453 /wd28204 /FU"C:\PROGRAM FILES (X86)\MICROSOFT VISUAL STUDIO 14.0\VC\LIB\STORE\REFERENCES\PLATFORM.WINMD" /FU"C:\PROGRAM FILES (X86)\WINDOWS KITS\10\REFERENCES\WINDOWS.APPLICATIONMODEL.CALLS.CALLSVOIPCONTRACT\1.0.0.0\WINDOWS.APPLICATIONMODEL.CALLS.CALLSVOIPCONTRACT.WINMD" /FU"C:\PROGRAM FILES (X86)\WINDOWS KITS\10\REFERENCES\WINDOWS.DEVICES.PRINTERS.PRINTERSCONTRACT\1.0.0.0\WINDOWS.DEVICES.PRINTERS.PRINTERSCONTRACT.WINMD" /FU"C:\PROGRAM FILES (X86)\WINDOWS KITS\10\REFERENCES\WINDOWS.FOUNDATION.FOUNDATIONCONTRACT\2.0.0.0\WINDOWS.FOUNDATION.FOUNDATIONCONTRACT.WINMD" /FU"C:\PROGRAM FILES (X86)\WINDOWS KITS\10\REFERENCES\WINDOWS.FOUNDATION.UNIVERSALAPICONTRACT\2.0.0.0\WINDOWS.FOUNDATION.UNIVERSALAPICONTRACT.WINMD" /FU"C:\PROGRAM FILES (X86)\WINDOWS KITS\10\REFERENCES\WINDOWS.GRAPHICS.PRINTING3D.PRINTING3DCONTRACT\2.0.0.0\WINDOWS.GRAPHICS.PRINTING3D.PRINTING3DCONTRACT.WINMD" /FU"C:\PROGRAM FILES (X86)\WINDOWS KITS\10\REFERENCES\WINDOWS.NETWORKING.CONNECTIVITY.WWANCONTRACT\1.0.0.0\WINDOWS.NETWORKING.CONNECTIVITY.WWANCONTRACT.WINMD" /analyze- /bigobj  D:\DEVELOPMENT\GIT\DXAPP\DXAPPW10\CONTENT\SAMPLE3DSCENERENDERER.CPP
^D:\DEVELOPMENT\GIT\DXAPP\DXAPPW10\GAME.CPP
/c /ID:\DEVELOPMENT\GIT\DXAPP\DXAPPW10\ /IARM\DEBUG\ /ID:\DEVELOPMENT\GIT\DXAPP\DXAPPW10\ /I"GENERATED FILES\\" /IARM\DEBUG\ /Zi /ZW /ZW:nostdlib /nologo /W3 /WX- /sdl /Od /Oy- /D _DEBUG /D _ARM_WINAPI_PARTITION_DESKTOP_SDK_AVAILABLE=1 /D _UNICODE /D UNICODE /D _DEBUG /D WINAPI_FAMILY=WINAPI_FAMILY_APP /D __WRL_NO_DEFAULT_LIB__ /Gm- /EHsc /RTC1 /MDd /GS /fp:precise /Zc:wchar_t /Zc:forScope /Zc:inline /Yu"pch.h" /Fp"ARM\DEBUG\PCH.PCH" /Fo"ARM\DEBUG\\" /Fd"ARM\DEBUG\VC140.PDB" /Gd /TP /wd4453 /wd28204 /FU"C:\PROGRAM FILES (X86)\MICROSOFT VISUAL STUDIO 14.0\VC\LIB\STORE\REFERENCES\PLATFORM.WINMD" /FU"C:\PROGRAM FILES (X86)\WINDOWS KITS\10\REFERENCES\WINDOWS.APPLICATIONMODEL.CALLS.CALLSVOIPCONTRACT\1.0.0.0\WINDOWS.APPLICATIONMODEL.CALLS.CALLSVOIPCONTRACT.WINMD" /FU"C:\PROGRAM FILES (X86)\WINDOWS KITS\10\REFERENCES\WINDOWS.DEVICES.PRINTERS.PRINTERSCONTRACT\1.0.0.0\WINDOWS.DEVICES.PRINTERS.PRINTERSCONTRACT.WINMD" /FU"C:\PROGRAM FILES (X86)\WINDOWS KITS\10\REFERENCES\WINDOWS.FOUNDATION.FOUNDATIONCONTRACT\2.0.0.0\WINDOWS.FOUNDATION.FOUNDATIONCONTRACT.WINMD" /FU"C:\PROGRAM FILES (X86)\WINDOWS KITS\10\REFERENCES\WINDOWS.FOUNDATION.UNIVERSALAPICONTRACT\2.0.0.0\WINDOWS.FOUNDATION.UNIVERSALAPICONTRACT.WINMD" /FU"C:\PROGRAM FILES (X86)\WINDOWS KITS\10\REFERENCES\WINDOWS.GRAPHICS.PRINTING3D.PRINTING3DCONTRACT\2.0.0.0\WINDOWS.GRAPHICS.PRINTING3D.PRINTING3DCONTRACT.WINMD" /FU"C:\PROGRAM FILES (X86)\WINDOWS KITS\10\REFERENCES\WINDOWS.NETWORKING.CONNECTIVITY.WWANCONTRACT\1.0.0.0\WINDOWS.NETWORKING.CONNECTIVITY.WWANCONTRACT.WINMD" /analyze- /bigobj  D:\DEVELOPMENT\GIT\DXAPP\DXAPPW10\GAME.CPP
^D:\DEVELOPMENT\GIT\DXAPP\DXAPPW10\HUD.CPP
/c /ID:\DEVELOPMENT\GIT\DXAPP\DXAPPW10\ /IARM\DEBUG\ /ID:\DEVELOPMENT\GIT\DXAPP\DXAPPW10\ /I"GENERATED FILES\\" /IARM\DEBUG\ /Zi /ZW /ZW:nostdlib /nologo /W3 /WX- /sdl /Od /Oy- /D _DEBUG /D _ARM_WINAPI_PARTITION_DESKTOP_SDK_AVAILABLE=1 /D _UNICODE /D UNICODE /D _DEBUG /D WINAPI_FAMILY=WINAPI_FAMILY_APP /D __WRL_NO_DEFAULT_LIB__ /Gm- /EHsc /RTC1 /MDd /GS /fp:precise /Zc:wchar_t /Zc:forScope /Zc:inline /Yu"pch.h" /Fp"ARM\DEBUG\PCH.PCH" /Fo"ARM\DEBUG\\" /Fd"ARM\DEBUG\VC140.PDB" /Gd /TP /wd4453 /wd28204 /FU"C:\PROGRAM FILES (X86)\MICROSOFT VISUAL STUDIO 14.0\VC\LIB\STORE\REFERENCES\PLATFORM.WINMD" /FU"C:\PROGRAM FILES (X86)\WINDOWS KITS\10\REFERENCES\WINDOWS.APPLICATIONMODEL.CALLS.CALLSVOIPCONTRACT\1.0.0.0\WINDOWS.APPLICATIONMODEL.CALLS.CALLSVOIPCONTRACT.WINMD" /FU"C:\PROGRAM FILES (X86)\WINDOWS KITS\10\REFERENCES\WINDOWS.DEVICES.PRINTERS.PRINTERSCONTRACT\1.0.0.0\WINDOWS.DEVICES.PRINTERS.PRINTERSCONTRACT.WINMD" /FU"C:\PROGRAM FILES (X86)\WINDOWS KITS\10\REFERENCES\WINDOWS.FOUNDATION.FOUNDATIONCONTRACT\2.0.0.0\WINDOWS.FOUNDATION.FOUNDATIONCONTRACT.WINMD" /FU"C:\PROGRAM FILES (X86)\WINDOWS KITS\10\REFERENCES\WINDOWS.FOUNDATION.UNIVERSALAPICONTRACT\2.0.0.0\WINDOWS.FOUNDATION.UNIVERSALAPICONTRACT.WINMD" /FU"C:\PROGRAM FILES (X86)\WINDOWS KITS\10\REFERENCES\WINDOWS.GRAPHICS.PRINTING3D.PRINTING3DCONTRACT\2.0.0.0\WINDOWS.GRAPHICS.PRINTING3D.PRINTING3DCONTRACT.WINMD" /FU"C:\PROGRAM FILES (X86)\WINDOWS KITS\10\REFERENCES\WINDOWS.NETWORKING.CONNECTIVITY.WWANCONTRACT\1.0.0.0\WINDOWS.NETWORKING.CONNECTIVITY.WWANCONTRACT.WINMD" /analyze- /bigobj  D:\DEVELOPMENT\GIT\DXAPP\DXAPPW10\HUD.CPP
^D:\DEVELOPMENT\GIT\DXAPP\DXAPPW10\MAIN.CPP
/c /ID:\DEVELOPMENT\GIT\DXAPP\DXAPPW10\ /IARM\DEBUG\ /ID:\DEVELOPMENT\GIT\DXAPP\DXAPPW10\ /I"GENERATED FILES\\" /IARM\DEBUG\ /Zi /ZW /ZW:nostdlib /nologo /W3 /WX- /sdl /Od /Oy- /D _DEBUG /D _ARM_WINAPI_PARTITION_DESKTOP_SDK_AVAILABLE=1 /D _UNICODE /D UNICODE /D _DEBUG /D WINAPI_FAMILY=WINAPI_FAMILY_APP /D __WRL_NO_DEFAULT_LIB__ /Gm- /EHsc /RTC1 /MDd /GS /fp:precise /Zc:wchar_t /Zc:forScope /Zc:inline /Yu"pch.h" /Fp"ARM\DEBUG\PCH.PCH" /Fo"ARM\DEBUG\\" /Fd"ARM\DEBUG\VC140.PDB" /Gd /TP /wd4453 /wd28204 /FU"C:\PROGRAM FILES (X86)\MICROSOFT VISUAL STUDIO 14.0\VC\LIB\STORE\REFERENCES\PLATFORM.WINMD" /FU"C:\PROGRAM FILES (X86)\WINDOWS KITS\10\REFERENCES\WINDOWS.APPLICATIONMODEL.CALLS.CALLSVOIPCONTRACT\1.0.0.0\WINDOWS.APPLICATIONMODEL.CALLS.CALLSVOIPCONTRACT.WINMD" /FU"C:\PROGRAM FILES (X86)\WINDOWS KITS\10\REFERENCES\WINDOWS.DEVICES.PRINTERS.PRINTERSCONTRACT\1.0.0.0\WINDOWS.DEVICES.PRINTERS.PRINTERSCONTRACT.WINMD" /FU"C:\PROGRAM FILES (X86)\WINDOWS KITS\10\REFERENCES\WINDOWS.FOUNDATION.FOUNDATIONCONTRACT\2.0.0.0\WINDOWS.FOUNDATION.FOUNDATIONCONTRACT.WINMD" /FU"C:\PROGRAM FILES (X86)\WINDOWS KITS\10\REFERENCES\WINDOWS.FOUNDATION.UNIVERSALAPICONTRACT\2.0.0.0\WINDOWS.FOUNDATION.UNIVERSALAPICONTRACT.WINMD" /FU"C:\PROGRAM FILES (X86)\WINDOWS KITS\10\REFERENCES\WINDOWS.GRAPHICS.PRINTING3D.PRINTING3DCONTRACT\2.0.0.0\WINDOWS.GRAPHICS.PRINTING3D.PRINTING3DCONTRACT.WINMD" /FU"C:\PROGRAM FILES (X86)\WINDOWS KITS\10\REFERENCES\WINDOWS.NETWORKING.CONNECTIVITY.WWANCONTRACT\1.0.0.0\WINDOWS.NETWORKING.CONNECTIVITY.WWANCONTRACT.WINMD" /analyze- /bigobj  D:\DEVELOPMENT\GIT\DXAPP\DXAPPW10\MAIN.CPP
^D:\DEVELOPMENT\GIT\DXAPP\DXAPPW10\TICKER.CPP
/c /ID:\DEVELOPMENT\GIT\DXAPP\DXAPPW10\ /IARM\DEBUG\ /ID:\DEVELOPMENT\GIT\DXAPP\DXAPPW10\ /I"GENERATED FILES\\" /IARM\DEBUG\ /Zi /ZW /ZW:nostdlib /nologo /W3 /WX- /sdl /Od /Oy- /D _DEBUG /D _ARM_WINAPI_PARTITION_DESKTOP_SDK_AVAILABLE=1 /D _UNICODE /D UNICODE /D _DEBUG /D WINAPI_FAMILY=WINAPI_FAMILY_APP /D __WRL_NO_DEFAULT_LIB__ /Gm- /EHsc /RTC1 /MDd /GS /fp:precise /Zc:wchar_t /Zc:forScope /Zc:inline /Yu"pch.h" /Fp"ARM\DEBUG\PCH.PCH" /Fo"ARM\DEBUG\\" /Fd"ARM\DEBUG\VC140.PDB" /Gd /TP /wd4453 /wd28204 /FU"C:\PROGRAM FILES (X86)\MICROSOFT VISUAL STUDIO 14.0\VC\LIB\STORE\REFERENCES\PLATFORM.WINMD" /FU"C:\PROGRAM FILES (X86)\WINDOWS KITS\10\REFERENCES\WINDOWS.APPLICATIONMODEL.CALLS.CALLSVOIPCONTRACT\1.0.0.0\WINDOWS.APPLICATIONMODEL.CALLS.CALLSVOIPCONTRACT.WINMD" /FU"C:\PROGRAM FILES (X86)\WINDOWS KITS\10\REFERENCES\WINDOWS.DEVICES.PRINTERS.PRINTERSCONTRACT\1.0.0.0\WINDOWS.DEVICES.PRINTERS.PRINTERSCONTRACT.WINMD" /FU"C:\PROGRAM FILES (X86)\WINDOWS KITS\10\REFERENCES\WINDOWS.FOUNDATION.FOUNDATIONCONTRACT\2.0.0.0\WINDOWS.FOUNDATION.FOUNDATIONCONTRACT.WINMD" /FU"C:\PROGRAM FILES (X86)\WINDOWS KITS\10\REFERENCES\WINDOWS.FOUNDATION.UNIVERSALAPICONTRACT\2.0.0.0\WINDOWS.FOUNDATION.UNIVERSALAPICONTRACT.WINMD" /FU"C:\PROGRAM FILES (X86)\WINDOWS KITS\10\REFERENCES\WINDOWS.GRAPHICS.PRINTING3D.PRINTING3DCONTRACT\2.0.0.0\WINDOWS.GRAPHICS.PRINTING3D.PRINTING3DCONTRACT.WINMD" /FU"C:\PROGRAM FILES (X86)\WINDOWS KITS\10\REFERENCES\WINDOWS.NETWORKING.CONNECTIVITY.WWANCONTRACT\1.0.0.0\WINDOWS.NETWORKING.CONNECTIVITY.WWANCONTRACT.WINMD" /analyze- /bigobj  D:\DEVELOPMENT\GIT\DXAPP\DXAPPW10\TICKER.CPP
^D:\DEVELOPMENT\GIT\DXAPP\DXAPPW10\UTILS.CPP
/c /ID:\DEVELOPMENT\GIT\DXAPP\DXAPPW10\ /IARM\DEBUG\ /ID:\DEVELOPMENT\GIT\DXAPP\DXAPPW10\ /I"GENERATED FILES\\" /IARM\DEBUG\ /Zi /ZW /ZW:nostdlib /nologo /W3 /WX- /sdl /Od /Oy- /D _DEBUG /D _ARM_WINAPI_PARTITION_DESKTOP_SDK_AVAILABLE=1 /D _UNICODE /D UNICODE /D _DEBUG /D WINAPI_FAMILY=WINAPI_FAMILY_APP /D __WRL_NO_DEFAULT_LIB__ /Gm- /EHsc /RTC1 /MDd /GS /fp:precise /Zc:wchar_t /Zc:forScope /Zc:inline /Yu"pch.h" /Fp"ARM\DEBUG\PCH.PCH" /Fo"ARM\DEBUG\\" /Fd"ARM\DEBUG\VC140.PDB" /Gd /TP /wd4453 /wd28204 /FU"C:\PROGRAM FILES (X86)\MICROSOFT VISUAL STUDIO 14.0\VC\LIB\STORE\REFERENCES\PLATFORM.WINMD" /FU"C:\PROGRAM FILES (X86)\WINDOWS KITS\10\REFERENCES\WINDOWS.APPLICATIONMODEL.CALLS.CALLSVOIPCONTRACT\1.0.0.0\WINDOWS.APPLICATIONMODEL.CALLS.CALLSVOIPCONTRACT.WINMD" /FU"C:\PROGRAM FILES (X86)\WINDOWS KITS\10\REFERENCES\WINDOWS.DEVICES.PRINTERS.PRINTERSCONTRACT\1.0.0.0\WINDOWS.DEVICES.PRINTERS.PRINTERSCONTRACT.WINMD" /FU"C:\PROGRAM FILES (X86)\WINDOWS KITS\10\REFERENCES\WINDOWS.FOUNDATION.FOUNDATIONCONTRACT\2.0.0.0\WINDOWS.FOUNDATION.FOUNDATIONCONTRACT.WINMD" /FU"C:\PROGRAM FILES (X86)\WINDOWS KITS\10\REFERENCES\WINDOWS.FOUNDATION.UNIVERSALAPICONTRACT\2.0.0.0\WINDOWS.FOUNDATION.UNIVERSALAPICONTRACT.WINMD" /FU"C:\PROGRAM FILES (X86)\WINDOWS KITS\10\REFERENCES\WINDOWS.GRAPHICS.PRINTING3D.PRINTING3DCONTRACT\2.0.0.0\WINDOWS.GRAPHICS.PRINTING3D.PRINTING3DCONTRACT.WINMD" /FU"C:\PROGRAM FILES (X86)\WINDOWS KITS\10\REFERENCES\WINDOWS.NETWORKING.CONNECTIVITY.WWANCONTRACT\1.0.0.0\WINDOWS.NETWORKING.CONNECTIVITY.WWANCONTRACT.WINMD" /analyze- /bigobj  D:\DEVELOPMENT\GIT\DXAPP\DXAPPW10\UTILS.CPP
