^D:\DEVELOPMENT\GIT\DXAPP\DXAPPW10\PCH.CPP
D:\DEVELOPMENT\GIT\DXAPP\DXAPPW10\ARM\DEBUG\PCH.PCH
D:\DEVELOPMENT\GIT\DXAPP\DXAPPW10\ARM\DEBUG\VC140.PDB
D:\DEVELOPMENT\GIT\DXAPP\DXAPPW10\ARM\DEBUG\PCH.OBJ
^D:\DEVELOPMENT\GIT\DXAPP\DXAPPW10\COMMON\DEVICERESOURCES.CPP|D:\DEVELOPMENT\GIT\DXAPP\DXAPPW10\CONTENT\SAMPLE3DSCENERENDERER.CPP|D:\DEVELOPMENT\GIT\DXAPP\DXAPPW10\CONTENT\SAMPLEFPSTEXTRENDERER.CPP|D:\DEVELOPMENT\GIT\DXAPP\DXAPPW10\GAME.CPP|D:\DEVELOPMENT\GIT\DXAPP\DXAPPW10\HUD.CPP|D:\DEVELOPMENT\GIT\DXAPP\DXAPPW10\MAIN.CPP|D:\DEVELOPMENT\GIT\DXAPP\DXAPPW10\TICKER.CPP|D:\DEVELOPMENT\GIT\DXAPP\DXAPPW10\UTILS.CPP
D:\DEVELOPMENT\GIT\DXAPP\DXAPPW10\ARM\DEBUG\SAMPLEFPSTEXTRENDERER.OBJ
D:\DEVELOPMENT\GIT\DXAPP\DXAPPW10\ARM\DEBUG\TICKER.OBJ
D:\DEVELOPMENT\GIT\DXAPP\DXAPPW10\ARM\DEBUG\MAIN.OBJ
D:\DEVELOPMENT\GIT\DXAPP\DXAPPW10\ARM\DEBUG\SAMPLE3DSCENERENDERER.OBJ
D:\DEVELOPMENT\GIT\DXAPP\DXAPPW10\ARM\DEBUG\UTILS.OBJ
D:\DEVELOPMENT\GIT\DXAPP\DXAPPW10\ARM\DEBUG\DEVICERESOURCES.OBJ
D:\DEVELOPMENT\GIT\DXAPP\DXAPPW10\ARM\DEBUG\GAME.OBJ
D:\DEVELOPMENT\GIT\DXAPP\DXAPPW10\ARM\DEBUG\HUD.OBJ
^D:\DEVELOPMENT\GIT\DXAPP\DXAPPW10\COMMON\DEVICERESOURCES.CPP
D:\DEVELOPMENT\GIT\DXAPP\DXAPPW10\ARM\DEBUG\VC140.PDB
^D:\DEVELOPMENT\GIT\DXAPP\DXAPPW10\CONTENT\SAMPLEFPSTEXTRENDERER.CPP
D:\DEVELOPMENT\GIT\DXAPP\DXAPPW10\ARM\DEBUG\VC140.PDB
^D:\DEVELOPMENT\GIT\DXAPP\DXAPPW10\CONTENT\SAMPLE3DSCENERENDERER.CPP
D:\DEVELOPMENT\GIT\DXAPP\DXAPPW10\ARM\DEBUG\VC140.PDB
^D:\DEVELOPMENT\GIT\DXAPP\DXAPPW10\GAME.CPP
D:\DEVELOPMENT\GIT\DXAPP\DXAPPW10\ARM\DEBUG\VC140.PDB
^D:\DEVELOPMENT\GIT\DXAPP\DXAPPW10\HUD.CPP
D:\DEVELOPMENT\GIT\DXAPP\DXAPPW10\ARM\DEBUG\VC140.PDB
^D:\DEVELOPMENT\GIT\DXAPP\DXAPPW10\MAIN.CPP
D:\DEVELOPMENT\GIT\DXAPP\DXAPPW10\ARM\DEBUG\VC140.PDB
^D:\DEVELOPMENT\GIT\DXAPP\DXAPPW10\TICKER.CPP
D:\DEVELOPMENT\GIT\DXAPP\DXAPPW10\ARM\DEBUG\VC140.PDB
^D:\DEVELOPMENT\GIT\DXAPP\DXAPPW10\UTILS.CPP
D:\DEVELOPMENT\GIT\DXAPP\DXAPPW10\ARM\DEBUG\VC140.PDB
